<?xml version="1.0" encoding="utf-8"?>
<!-- Generator: Adobe Illustrator 24.0.3, SVG Export Plug-In . SVG Version: 6.00 Build 0)  -->
<svg version="1.1" id="Layer_2" xmlns="http://www.w3.org/2000/svg" xmlns:xlink="http://www.w3.org/1999/xlink" x="0px" y="0px"
	 viewBox="0 0 16 13" style="enable-background:new 0 0 16 13;" xml:space="preserve">
<style type="text/css">
	.st0{fill-rule:evenodd;clip-rule:evenodd;fill:#2EA3C0;}
</style>
<g id="Landing-Page">
	<g id="Landing-page-V3" transform="translate(-743.000000, -1614.000000)">
		<g id="Group-33" transform="translate(0.000000, 1514.000000)">
			<g id="Group-29" transform="translate(135.000000, 0.000000)">
				<g id="Group-32">
					<g id="Group-31">
						<g id="Group-36">
							<g id="Group-26" transform="translate(600.000000, 90.000000)">
								<g id="Group-21-Copy-6">
									<g id="Group-20">
										<g id="Icon_x2F_Check" transform="translate(8.000000, 8.000000)">
											<path id="Path" class="st0" d="M6.9,10.7l6.3-8.1c0.3-0.4,1-0.5,1.4-0.2l0.8,0.6c0.4,0.3,0.5,1,0.2,1.4l-7.3,9.4
												c-0.6,0.7-1.6,0.8-2.2,0.1L0.6,8.7c-0.4-0.4-0.4-1,0-1.4l0.7-0.7c0.4-0.4,1-0.4,1.4,0L6.9,10.7z"/>
										</g>
									</g>
								</g>
							</g>
						</g>
					</g>
				</g>
			</g>
		</g>
	</g>
</g>
</svg>
